[{"page":1,"pages":27,"per_page":10,"total":266,"sourceid":"2","lastupdated":"2026-02-24"},[{"indicator":{"id":"NY.GDP.PCAP.PP.CD","value":"GDP per capita, PPP (current international $)"},"country":{"id":"ZH","value":"Africa Eastern and Southern"},"countryiso3code":"AFE","date":"2024","value":4635.7882240455,"unit":"","obs_status":"","decimal":1},{"indicator":{"id":"NY.GDP.PCAP.PP.CD","value":"GDP per capita, PPP (current international $)"},"country":{"id":"ZI","value":"Africa Western and Central"},"countryiso3code":"AFW","date":"2024","value":6815.99096115117,"unit":"","obs_status":"","decimal":1},{"indicator":{"id":"NY.GDP.PCAP.PP.CD","value":"GDP per capita, PPP (current international $)"},"country":{"id":"1A","value":"Arab World"},"countryiso3code":"ARB","date":"2024","value":18870.3148110507,"unit":"","obs_status":"","decimal":1},{"indicator":{"id":"NY.GDP.PCAP.PP.CD","value":"GDP per capita, PPP (current international $)"},"country":{"id":"S3","value":"Caribbean small states"},"countryiso3code":"CSS","date":"2024","value":38624.0605441698,"unit":"","obs_status":"","decimal":1},{"indicator":{"id":"NY.GDP.PCAP.PP.CD","value":"GDP per capita, PPP (current international $)"},"country":{"id":"B8","value":"Central Europe and the Baltics"},"countryiso3code":"CEB","date":"2024","value":50487.3304819118,"unit":"","obs_status":"","decimal":1},{"indicator":{"id":"NY.GDP.PCAP.PP.CD","value":"GDP per capita, PPP (current international $)"},"country":{"id":"V2","value":"Early-demographic dividend"},"countryiso3code":"EAR","date":"2024","value":13995.4055576952,"unit":"","obs_status":"","decimal":1},{"indicator":{"id":"NY.GDP.PCAP.PP.CD","value":"GDP per capita, PPP (current international $)"},"country":{"id":"Z4","value":"East Asia & Pacific"},"countryiso3code":"EAS","date":"2024","value":27285.2112349993,"unit":"","obs_status":"","decimal":1},{"indicator":{"id":"NY.GDP.PCAP.PP.CD","value":"GDP per capita, PPP (current international $)"},"country":{"id":"4E","value":"East Asia & Pacific (excluding high income)"},"countryiso3code":"EAP","date":"2024","value":23248.0251794368,"unit":"","obs_status":"","decimal":1},{"indicator":{"id":"NY.GDP.PCAP.PP.CD","value":"GDP per capita, PPP (current international $)"},"country":{"id":"T4","value":"East Asia & Pacific (IDA & IBRD countries)"},"countryiso3code":"TEA","date":"2024","value":23509.7241651154,"unit":"","obs_status":"","decimal":1},{"indicator":{"id":"NY.GDP.PCAP.PP.CD","value":"GDP per capita, PPP (current international $)"},"country":{"id":"XC","value":"Euro area"},"countryiso3code":"EMU","date":"2024","value":66097.0207220176,"unit":"","obs_status":"","decimal":1}]]